[ {
  "buildOrder" : 9,
  "reportUrl" : "http://localhost:8080/jenkins/job/UI%20regression%20test/9/allure",
  "reportName" : "AllureReport",
  "data" : {
    "duration" : 21645513
  }
}, {
  "buildOrder" : 8,
  "reportUrl" : "http://localhost:8080/jenkins/job/UI%20regression%20test/8/allure",
  "reportName" : "AllureReport",
  "data" : {
    "duration" : 1671477
  }
}, {
  "buildOrder" : 7,
  "reportUrl" : "http://localhost:8080/jenkins/job/UI%20regression%20test/7/allure",
  "reportName" : "AllureReport",
  "data" : {
    "duration" : 1671477
  }
}, {
  "buildOrder" : 6,
  "reportUrl" : "http://localhost:8080/jenkins/job/UI%20regression%20test/6/allure",
  "reportName" : "AllureReport",
  "data" : {
    "duration" : 1671477
  }
}, {
  "buildOrder" : 5,
  "reportUrl" : "http://localhost:8080/jenkins/job/UI%20regression%20test/5/allure",
  "reportName" : "AllureReport",
  "data" : {
    "duration" : 9388229
  }
}, {
  "buildOrder" : 4,
  "reportUrl" : "http://localhost:8080/jenkins/job/UI%20regression%20test/4/allure",
  "reportName" : "AllureReport",
  "data" : {
    "duration" : 7763266
  }
} ]