[ {
  "uid" : "6d3b0638da913ab9",
  "name" : "test_no_gender_register",
  "time" : {
    "start" : 1589892060515,
    "stop" : 1589892129795,
    "duration" : 69280
  },
  "status" : "passed",
  "severity" : "normal"
}, {
  "uid" : "14fb2b78a217e09d",
  "name" : "test_username_edit",
  "time" : {
    "start" : 1589871293582,
    "stop" : 1589871321267,
    "duration" : 27685
  },
  "status" : "passed",
  "severity" : "normal"
}, {
  "uid" : "5f571b431b230869",
  "name" : "test_wrong_verification",
  "time" : {
    "start" : 1589870756118,
    "stop" : 1589870799265,
    "duration" : 43147
  },
  "status" : "passed",
  "severity" : "normal"
}, {
  "uid" : "18e90a7cea19dd89",
  "name" : "test_0_numbers_login",
  "time" : {
    "start" : 1589870535535,
    "stop" : 1589870566486,
    "duration" : 30951
  },
  "status" : "passed",
  "severity" : "normal"
}, {
  "uid" : "53928e536081337a",
  "name" : "test_0_verification",
  "time" : {
    "start" : 1589870633715,
    "stop" : 1589870676409,
    "duration" : 42694
  },
  "status" : "passed",
  "severity" : "normal"
}, {
  "uid" : "f8ed09fe37045951",
  "name" : "test_normal_login",
  "time" : {
    "start" : 1589870817168,
    "stop" : 1589870845402,
    "duration" : 28234
  },
  "status" : "passed",
  "severity" : "normal"
}, {
  "uid" : "e44e1b76d82caccc",
  "name" : "test_country_edit",
  "time" : {
    "start" : 1589871597438,
    "stop" : 1589871636359,
    "duration" : 38921
  },
  "status" : "passed",
  "severity" : "normal"
}, {
  "uid" : "1924f600c92c6add",
  "name" : "test_no_age_register",
  "time" : {
    "start" : 1589891978124,
    "stop" : 1589892040464,
    "duration" : 62340
  },
  "status" : "passed",
  "severity" : "normal"
}, {
  "uid" : "f3ef62f61ec68a4d",
  "name" : "test_bio_bank_done",
  "time" : {
    "start" : 1589871777358,
    "stop" : 1589871820718,
    "duration" : 43360
  },
  "status" : "passed",
  "severity" : "normal"
}, {
  "uid" : "d77964df14046a18",
  "name" : "test_username_bank_done",
  "time" : {
    "start" : 1589871840701,
    "stop" : 1589871889216,
    "duration" : 48515
  },
  "status" : "passed",
  "severity" : "normal"
}, {
  "uid" : "b955184f09d2f7b1",
  "name" : "test_no_username_register",
  "time" : {
    "start" : 1589891901985,
    "stop" : 1589891958777,
    "duration" : 56792
  },
  "status" : "passed",
  "severity" : "normal"
}, {
  "uid" : "56f2b6f7c6992fa8",
  "name" : "test_go_MeEditView",
  "time" : {
    "start" : 1589871163995,
    "stop" : 1589871193356,
    "duration" : 29361
  },
  "status" : "passed",
  "severity" : "normal"
}, {
  "uid" : "fd7a275dce183558",
  "name" : "test_10_numbers_login",
  "time" : {
    "start" : 1589870484282,
    "stop" : 1589870517629,
    "duration" : 33347
  },
  "status" : "passed",
  "severity" : "normal"
}, {
  "uid" : "233c9f62f68049a8",
  "name" : "test_3_verification",
  "time" : {
    "start" : 1589870693468,
    "stop" : 1589870736562,
    "duration" : 43094
  },
  "status" : "passed",
  "severity" : "normal"
}, {
  "uid" : "44cac761566d325a",
  "name" : "test_get_Me_username",
  "time" : {
    "start" : 1589871212627,
    "stop" : 1589871225153,
    "duration" : 12526
  },
  "status" : "passed",
  "severity" : "normal"
}, {
  "uid" : "3fd37cb5cb727dfe",
  "name" : "test_username_nochange_edit",
  "time" : {
    "start" : 1589871344366,
    "stop" : 1589871393393,
    "duration" : 49027
  },
  "status" : "passed",
  "severity" : "normal"
}, {
  "uid" : "9a6077b6bc18cd6a",
  "name" : "test_get_Me_bio",
  "time" : {
    "start" : 1589871246973,
    "stop" : 1589871274103,
    "duration" : 27130
  },
  "status" : "passed",
  "severity" : "normal"
}, {
  "uid" : "585831bd57d373fc",
  "name" : "test_birthday_edit",
  "time" : {
    "start" : 1589871469459,
    "stop" : 1589871503950,
    "duration" : 34491
  },
  "status" : "passed",
  "severity" : "normal"
}, {
  "uid" : "2356dd9078a6174b",
  "name" : "test_back_to_MePage",
  "time" : {
    "start" : 1589870991438,
    "stop" : 1589871012668,
    "duration" : 21230
  },
  "status" : "failed",
  "severity" : "normal"
}, {
  "uid" : "d09b936d74cc6700",
  "name" : "test_12_numbers_login",
  "time" : {
    "start" : 1589870583921,
    "stop" : 1589870615909,
    "duration" : 31988
  },
  "status" : "passed",
  "severity" : "normal"
}, {
  "uid" : "ff90e88882a8ee58",
  "name" : "test_header_edit",
  "time" : {
    "start" : 1589871657789,
    "stop" : 1589871702195,
    "duration" : 44406
  },
  "status" : "passed",
  "severity" : "normal"
}, {
  "uid" : "71e0c2aa67d40a9",
  "name" : "test_bio_edit",
  "time" : {
    "start" : 1589871722485,
    "stop" : 1589871756645,
    "duration" : 34160
  },
  "status" : "passed",
  "severity" : "normal"
}, {
  "uid" : "ae8b10239d70bb47",
  "name" : "test_birthday_nochange_edit",
  "time" : {
    "start" : 1589871526302,
    "stop" : 1589871574943,
    "duration" : 48641
  },
  "status" : "passed",
  "severity" : "normal"
} ]