"Status","Start Time","Stop Time","Duration in ms","Parent Suite","Suite","Sub Suite","Test Class","Test Method","Name","Description"
"passed","Tue May 19 14:57:49 CST 2020","Tue May 19 14:58:23 CST 2020","34491","","test04_MeEditVew","Test_MeEditView","","","test_birthday_edit",""
"passed","Tue May 19 14:44:53 CST 2020","Tue May 19 14:45:36 CST 2020","43094","","test02_LoginView","Test_LoginView","","","test_3_verification",""
"passed","Tue May 19 14:59:57 CST 2020","Tue May 19 15:00:36 CST 2020","38921","","test04_MeEditVew","Test_MeEditView","","","test_country_edit",""
"passed","Tue May 19 14:43:03 CST 2020","Tue May 19 14:43:35 CST 2020","31988","","test02_LoginView","Test_LoginView","","","test_12_numbers_login",""
"passed","Tue May 19 14:42:15 CST 2020","Tue May 19 14:42:46 CST 2020","30951","","test02_LoginView","Test_LoginView","","","test_0_numbers_login",""
"passed","Tue May 19 14:43:53 CST 2020","Tue May 19 14:44:36 CST 2020","42694","","test02_LoginView","Test_LoginView","","","test_0_verification",""
"passed","Tue May 19 14:54:06 CST 2020","Tue May 19 14:54:34 CST 2020","27130","","test03_MeinformationView","Test_MeinformationView","","","test_get_Me_bio",""
"passed","Tue May 19 14:54:53 CST 2020","Tue May 19 14:55:21 CST 2020","27685","","test04_MeEditVew","Test_MeEditView","","","test_username_edit",""
"passed","Tue May 19 20:38:21 CST 2020","Tue May 19 20:39:18 CST 2020","56792","","test01_RegisterView","Test_RegisterView","","","test_no_username_register",""
"passed","Tue May 19 14:45:56 CST 2020","Tue May 19 14:46:39 CST 2020","43147","","test02_LoginView","Test_LoginView","","","test_wrong_verification",""
"passed","Tue May 19 14:58:46 CST 2020","Tue May 19 14:59:34 CST 2020","48641","","test04_MeEditVew","Test_MeEditView","","","test_birthday_nochange_edit",""
"passed","Tue May 19 14:41:24 CST 2020","Tue May 19 14:41:57 CST 2020","33347","","test02_LoginView","Test_LoginView","","","test_10_numbers_login",""
"passed","Tue May 19 20:39:38 CST 2020","Tue May 19 20:40:40 CST 2020","62340","","test01_RegisterView","Test_RegisterView","","","test_no_age_register",""
"failed","Tue May 19 14:49:51 CST 2020","Tue May 19 14:50:12 CST 2020","21230","","test03_MeinformationView","Test_MeinformationView","","","test_back_to_MePage",""
"passed","Tue May 19 15:02:57 CST 2020","Tue May 19 15:03:40 CST 2020","43360","","test04_MeEditVew","Test_MeEditView","","","test_bio_bank_done",""
"passed","Tue May 19 14:53:32 CST 2020","Tue May 19 14:53:45 CST 2020","12526","","test03_MeinformationView","Test_MeinformationView","","","test_get_Me_username",""
"passed","Tue May 19 14:46:57 CST 2020","Tue May 19 14:47:25 CST 2020","28234","","test02_LoginView","Test_LoginView","","","test_normal_login",""
"passed","Tue May 19 14:55:44 CST 2020","Tue May 19 14:56:33 CST 2020","49027","","test04_MeEditVew","Test_MeEditView","","","test_username_nochange_edit",""
"passed","Tue May 19 20:41:00 CST 2020","Tue May 19 20:42:09 CST 2020","69280","","test01_RegisterView","Test_RegisterView","","","test_no_gender_register",""
"passed","Tue May 19 14:52:43 CST 2020","Tue May 19 14:53:13 CST 2020","29361","","test03_MeinformationView","Test_MeinformationView","","","test_go_MeEditView",""
"passed","Tue May 19 15:00:57 CST 2020","Tue May 19 15:01:42 CST 2020","44406","","test04_MeEditVew","Test_MeEditView","","","test_header_edit",""
"passed","Tue May 19 15:04:00 CST 2020","Tue May 19 15:04:49 CST 2020","48515","","test04_MeEditVew","Test_MeEditView","","","test_username_bank_done",""
"passed","Tue May 19 15:02:02 CST 2020","Tue May 19 15:02:36 CST 2020","34160","","test04_MeEditVew","Test_MeEditView","","","test_bio_edit",""
